[
  {
    "Quote": "I strive for progress not perfection."
  },
  {
    "Quote": "Even though I havev messed up in the past, I can still create a positive future."
  },
  {
    "Quote": "If I want something I’ve never had, I must do something I’ve never done."
  },
  {
    "Quote": "I deserve success."
  },
  {
    "Quote": "This is my time to shine."
  },
  {
    "Quote": "I am grateful for everything I have in my life."
  },
  {
    "Quote": "I put my energy into things that matter to me."
  },
  {
    "Quote": "I am improving in areas that I consider my weaknesses."
  },
  {
    "Quote": "I am my best source of motivation."
  },
  {
    "Quote": "I can remain calm, even if things go wrong."
  },
  {
    "Quote": "Note to self: I am going to make you so proud."
  },
  {
    "Quote": "Happiness is a choice; today, I choose to be happy."
  },
  {
    "Quote": "My own skills and talents will take me to places that amaze me."
  },
  {
    "Quote": "I am ready to work hard."
  },
  {
    "Quote": "I am committed to doing something new every day to improve myself."
  },
  {
    "Quote": "I am an unstoppable force of nature."
  },
  {
    "Quote": "I am brave enough to try."
  },
  {
    "Quote": "I am the architect of my life; I build its foundation and choose its contents."
  },
  {
    "Quote": "I am highly motivated and productive."
  },
  {
    "Quote": "Every day I strive to be the very best I can be."
  },
  {
    "Quote": "All I need is within me right now."
  },
  {
    "Quote": "Every day I push myself a little further."
  },
  {
    "Quote": "I trust the process of life."
  },
  {
    "Quote": "I am a source of motivation and inspiration for others."
  },
  {
    "Quote": "Today what serves me stays and what fails me goes."
  },
  {
    "Quote": "I am powerful."
  },
  {
    "Quote": "I am inspired to improve my being."
  },
  {
    "Quote": "I must remember the incredible power I possess within me to achieve anything I desire."
  },
  {
    "Quote": "I must be the change I wish to see in the world."
  },
  {
    "Quote": "I set goals and go after them with all the determination I can muster."
  }
]